<?xml version="1.0" encoding="UTF-8" standalone="no"?>
<svg
   xmlns:dc="http://purl.org/dc/elements/1.1/"
   xmlns:cc="http://creativecommons.org/ns#"
   xmlns:rdf="http://www.w3.org/1999/02/22-rdf-syntax-ns#"
   xmlns:svg="http://www.w3.org/2000/svg"
   xmlns="http://www.w3.org/2000/svg"
   xmlns:sodipodi="http://sodipodi.sourceforge.net/DTD/sodipodi-0.dtd"
   xmlns:inkscape="http://www.inkscape.org/namespaces/inkscape"
   id="svg8"
   version="1.1"
   viewBox="0 0 420 297"
   height="297mm"
   width="420mm"
   inkscape:version="1.0.2-2 (e86c870879, 2021-01-15)"
   sodipodi:docname="Unipal_logo_sign_only.svg">
  <defs
     id="defs2" />
  <sodipodi:namedview
     id="base"
     pagecolor="#ffffff"
     bordercolor="#666666"
     borderopacity="1.0"
     inkscape:pageopacity="0.0"
     inkscape:pageshadow="2"
     inkscape:zoom="0.24748737"
     inkscape:cx="877.37067"
     inkscape:cy="159.05151"
     inkscape:document-units="mm"
     inkscape:current-layer="layer4"
     inkscape:document-rotation="0"
     showgrid="false"
     inkscape:window-width="1920"
     inkscape:window-height="1001"
     inkscape:window-x="-9"
     inkscape:window-y="-9"
     inkscape:window-maximized="1" />
  <metadata
     id="metadata5">
    <rdf:RDF>
      <cc:Work
         rdf:about="">
        <dc:format>image/svg+xml</dc:format>
        <dc:type
           rdf:resource="http://purl.org/dc/dcmitype/StillImage" />
        <dc:title></dc:title>
      </cc:Work>
    </rdf:RDF>
  </metadata>
  <g
     inkscape:label="Unipal Original Logo"
     inkscape:groupmode="layer"
     id="layer1"
     style="display:none">
    <path
       style="fill:#000000;stroke-width:0.613489"
       id="path1220"
       d="" />
    <g
       id="g1525-7"
       transform="translate(31.190329,342.37008)" />
    <g
       id="g102"
       transform="matrix(1.4557153,0,0,1.4557153,-91.836779,-36.771336)"
       inkscape:export-xdpi="96"
       inkscape:export-ydpi="96">
      <path
         style="display:inline;fill:#132a3a;fill-opacity:1;stroke-width:1.06924"
         d="m 151.83644,115.39362 c -1.41686,-2.0229 -1.66448,-7.1574 -1.66448,-34.5124 0,-27.3551 0.24762,-32.489601 1.66448,-34.512401 2.11293,-3.0166 7.41413,-3.2194 9.20482,-0.352 1.23518,1.9778 1.36141,1.9737 5.49003,-0.1782 5.11022,-2.6636 14.47991,-2.9083 20.08636,-0.5246 19.74061,8.393301 19.5257,41.118701 -0.32448,49.410601 -5.04068,2.1056 -13.6771,2.1319 -18.64367,0.057 -2.11122,-0.8821 -4.02039,-1.6039 -4.24261,-1.6039 -0.22223,0 -0.40405,4.464 -0.40405,9.9199 0,11.4671 -1.4016,14.6727 -6.41544,14.6727 -1.97735,0 -3.68459,-0.854 -4.75096,-2.3764 z m 32.75963,-33.8525 c 3.14385,-2.8091 5.36672,-6.2151 5.19084,-11.0482 -0.16446,-4.5192 -1.1481,-7.1208 -3.7554,-10.2194 -4.93046,-5.8595 -14.3632,-6.4522 -20.6654,-1.2984 -2.26391,1.8514 -2.42498,2.7086 -2.13848,11.3806 0.30859,9.3409 0.32436,9.3882 3.94298,11.8231 5.45228,3.6688 12.91113,3.3958 17.42546,-0.6377 z M 17.890818,94.13022 c -6.95169,-2.6723 -13.4684402,-9.729 -15.1493402,-16.4045 -0.68181,-2.7077 -1.19394,-13.9406 -1.19394,-26.1875 0,-20.336101 0.11577,-21.561701 2.23733,-23.683301 1.48167,-1.4816 2.44321,-1.8174 4.02455,-1.8546 1.59955,-0.038 2.8382702,0.1947 4.3661202,1.3368 1.71453,1.2814 2.2032,6.6592 2.20688,26.061401 0.004,19.2443 0.19071,21.3735 2.16189,24.6066 5.64751,9.263 23.317071,8.7841 28.255551,-0.7659 1.33225,-2.5763 1.65577,-7.3624 1.65577,-24.4956 0,-19.923201 0.14263,-21.475001 2.21609,-24.111001 2.53064,-3.2172 6.64029,-2.9485 8.63931,-0.9523 1.94645,1.9437 1.97549,1.9446 1.97549,23.383901 0,12.5959 -0.50787,23.9369 -1.19394,26.6615 -3.73015,14.8138 -23.429301,22.8521 -40.201761,16.4045 z m 53.857681,0.2996 c -2.63427,-2.9108 -2.66228,-46.184201 -0.0316,-48.814901 2.43869,-2.4387 8.05868,-1.7184 9.51418,1.2195 1.12565,2.272 1.18332,2.2767 3.766731,0.3105 6.01762,-4.5801 16.71309,-4.8649 23.22232,-0.6184 6.60157,4.306801 7.73613,8.605101 7.73613,29.308401 0,17.0345 -0.14686,18.4151 -2.06819,19.4434 -3.08358,1.6503 -5.93925,1.3445 -7.92387,-0.8485 -1.47079,-1.6252 -1.76958,-4.5053 -1.76958,-17.0575 0,-9.0105 -0.49075,-16.1793 -1.21663,-17.7724 -2.67611,-5.8734 -13.17884,-7.9267 -18.29442,-0.6465 -2.742551,3.903 -2.542101,5.2393 -2.943001,19.3881 -0.33769,11.9179 -0.31589,14.9991 -1.68024,16.3634 -2.25324,2.2533 -6.14011,2.1246 -8.31183,-0.2751 z m 57.510321,0.4395 c -1.91886,-1.4014 -2.10039,-3.1841 -2.40481,-23.6164 -0.36816,-24.709901 0.1997,-27.260501 6.06903,-27.260501 6.15599,0 6.55651,1.6116 6.55651,26.382201 0,20.412 -0.1792,22.6336 -1.95536,24.241 -2.39785,2.17 -5.51069,2.2656 -8.26537,0.2537 z m 85.60218,-0.1238 c -4.93534,-2.4479 -8.0193,-7.7565 -8.0193,-13.8043 0,-10.814 6.82897,-16.0006 22.72136,-17.257 6.01588,-0.4755 9.35585,-1.1867 9.35585,-1.992 0,-2.5121 -2.82167,-5.0071 -6.63555,-5.8672 -3.58786,-0.8092 -6.15219,-0.5554 -15.37616,1.5217 -4.33151,0.9754 -7.10118,-1.626 -6.64821,-6.2442 0.28447,-2.900301 0.9924,-3.562001 5.67125,-5.301101 3.34162,-1.2421 8.35695,-2.6257 13.44369,-2.4136 6.04475,0.2521 8.87989,0.9723 13.04275,3.0778 8.34864,4.222601 9.33312,8.682301 9.33312,29.241201 0,15.2463 -0.21597,17.3347 -1.95536,18.9088 -2.55674,2.3138 -6.11922,2.2489 -8.52341,-0.1553 -1.8471,-1.8471 -2.09542,-1.8482 -6.14813,-0.028 -5.21123,2.3405 -15.8431,2.5049 -20.2619,0.3132 z m 17.37037,-10.6974 c 5.32783,-2.2261 7.75678,-4.609 7.75678,-7.6096 0,-2.2443 -0.71297,-3.0222 -4.78051,-2.9805 -11.39527,0.1168 -17.03393,3.4108 -15.80855,8.0967 1.04673,4.0027 6.62566,5.0867 12.83228,2.4934 z m 31.98042,10.3817 c -1.56515,-1.7295 -1.76959,-5.7206 -1.76959,-34.5459 0,-35.398201 0.17092,-36.474401 5.79237,-36.474401 6.45819,0 6.5039,0.2583 6.5039,36.745901 0,31.6248 -0.0982,33.2662 -2.07554,34.7121 -2.84837,2.0828 -6.33349,1.9023 -8.45114,-0.4377 z"
         id="path1448"
         sodipodi:nodetypes="sssssssssssssssssssssssssccssssssssssssssssssssssssssssssssssssssssssssssssssssss"
         inkscape:export-xdpi="96"
         inkscape:export-ydpi="96"
         inkscape:export-filename="C:\Users\saade\Desktop\Unipal_logo.png"
         transform="translate(67.268635,98.942657)" />
      <path
         style="display:inline;fill:#1bd693;fill-opacity:1;stroke-width:0.570215"
         d="m 128.85538,7.1330388 c 0.21721,-23.1128358 0.42731,-28.8290988 1.17809,-32.0493328 4.41994,-18.95536 16.82336,-32.071663 35.42179,-38.175237 7.41513,-2.433467 20.90605,-1.860508 27.06847,0.08312 22.43035,7.073868 36.11398,25.520727 36.03087,48.573189 -0.0829,22.9756208 -14.17456,43.789541 -37.55327,48.062801 -5.80317,1.06076 -5.66053,1.2595 -33.43579,1.44365 l -28.97456,0.19225 z m 62.24365,6.9658102 c 4.73322,-1.5164 9.29922,-4.4049402 10.68502,-6.7600402 0.86471,-1.46957 0.9972,-3.29381 0.9972,-13.73147 0,-6.6201998 -0.083,-12.0367418 -0.18439,-12.0367418 -0.10154,0 -5.7431,2.546838 -12.53704,5.659712 l -12.35252,5.6597198 -12.35253,-5.6597198 c -6.79391,-3.112874 -12.43553,-5.659712 -12.53703,-5.659712 -0.10129,0 -0.18269,5.456242 -0.1807,12.1248618 0.01,13.60827 0.0509,13.78991 4.32832,16.9395802 5.1811,3.81505 11.46891,5.21768 22.16654,4.94504 6.28882,-0.15966 8.82271,-0.47383 11.96713,-1.48123 z m 25.92874,-8.4754002 c 0,-5.46335004 -0.13342,-6.30906004 -1.13968,-7.22071 -1.06291,-0.96299 -1.1397,-1.75738 -1.1397,-11.7762598 v -10.743177 l -1.99462,0.952271 -1.9945,0.952347 v 9.791119 c 0,9.0663198 -0.084,9.8674198 -1.13969,10.8236998 -1.00633,0.91164996 -1.13971,1.75735996 -1.13971,7.22071 v 6.1878702 h 4.2739 4.274 z M 197.91835,-20.14107 c 10.82233,-4.864225 19.67744,-9.009363 19.67813,-9.21174 2.7e-4,-0.202189 -8.97349,-3.965514 -19.94254,-8.362634 l -19.94374,-7.994759 -20.37104,8.162443 -20.37114,8.162664 1.99159,0.924192 c 11.65843,5.410944 38.55479,17.365393 38.87229,17.277393 0.2253,-0.0622 9.26412,-4.093416 20.08645,-8.957559 z"
         id="path1294-8-5-0-6"
         sodipodi:nodetypes="ssssssscsssssscsscsssssscccssscccsscscccsss"
         inkscape:export-xdpi="96"
         inkscape:export-ydpi="96"
         inkscape:export-filename="C:\Users\saade\Desktop\Unipal_logo.png"
         transform="translate(67.268635,98.942657)" />
    </g>
  </g>
  <g
     inkscape:groupmode="layer"
     id="layer4"
     inkscape:label="Unipal Name only"
     style="display:none">
    <g
       id="g102-9"
       transform="matrix(1.4557153,0,0,1.4557153,-89.33385,-31.531261)"
       inkscape:export-xdpi="96"
       inkscape:export-ydpi="96"
       style="display:inline">
      <path
         style="display:inline;fill:#132a3a;fill-opacity:1;stroke-width:1.06924"
         d="m 220.57388,177.61625 c -1.41686,-2.0229 -1.66448,-7.1574 -1.66448,-34.5124 0,-27.3551 0.24762,-32.4896 1.66448,-34.5124 2.11293,-3.0166 7.41413,-3.2194 9.20482,-0.352 1.23518,1.9778 1.36141,1.9737 5.49003,-0.1782 5.11022,-2.6636 14.47991,-2.9083 20.08636,-0.5246 19.74061,8.3933 19.5257,41.1187 -0.32448,49.4106 -5.04068,2.1056 -13.6771,2.1319 -18.64367,0.057 -2.11122,-0.8821 -4.02039,-1.6039 -4.24261,-1.6039 -0.22223,0 -0.40405,4.464 -0.40405,9.9199 0,11.4671 -1.4016,14.6727 -6.41544,14.6727 -1.97735,0 -3.68459,-0.854 -4.75096,-2.3764 z m 32.75963,-33.8525 c 3.14385,-2.8091 5.36672,-6.2151 5.19084,-11.0482 -0.16446,-4.5192 -1.1481,-7.1208 -3.7554,-10.2194 -4.93046,-5.8595 -14.3632,-6.4522 -20.6654,-1.2984 -2.26391,1.8514 -2.42498,2.7086 -2.13848,11.3806 0.30859,9.3409 0.32436,9.3882 3.94298,11.8231 5.45228,3.6688 12.91113,3.3958 17.42546,-0.6377 z m -166.705256,12.5891 c -6.95169,-2.6723 -13.46844,-9.729 -15.14934,-16.4045 -0.68181,-2.7077 -1.19394,-13.9406 -1.19394,-26.1875 0,-20.336102 0.11577,-21.561702 2.23733,-23.683302 1.48167,-1.4816 2.44321,-1.8174 4.02455,-1.8546 1.59955,-0.038 2.83827,0.1947 4.36612,1.3368 1.71453,1.2814 2.2032,6.6592 2.20688,26.061402 0.004,19.2443 0.19071,21.3735 2.16189,24.6066 5.64751,9.263 23.317076,8.7841 28.255556,-0.7659 1.33225,-2.5763 1.65577,-7.3624 1.65577,-24.4956 0,-19.923202 0.14263,-21.475002 2.21609,-24.111002 2.53064,-3.2172 6.64029,-2.9485 8.63931,-0.9523 1.94645,1.9437 1.97549,1.9446 1.97549,23.383902 0,12.5959 -0.50787,23.9369 -1.19394,26.6615 -3.73015,14.8138 -23.42931,22.8521 -40.201766,16.4045 z m 53.857686,0.2996 c -2.63427,-2.9108 -2.66228,-46.1842 -0.0316,-48.8149 2.43869,-2.4387 8.05868,-1.7184 9.51418,1.2195 1.12565,2.272 1.18332,2.2767 3.76673,0.3105 6.01762,-4.5801 16.71309,-4.8649 23.22232,-0.6184 6.60157,4.3068 7.73613,8.6051 7.73613,29.3084 0,17.0345 -0.14686,18.4151 -2.06819,19.4434 -3.08358,1.6503 -5.93925,1.3445 -7.92387,-0.8485 -1.47079,-1.6252 -1.76958,-4.5053 -1.76958,-17.0575 0,-9.0105 -0.49075,-16.1793 -1.21663,-17.7724 -2.67611,-5.8734 -13.17884,-7.9267 -18.29442,-0.6465 -2.74255,3.903 -2.5421,5.2393 -2.943,19.3881 -0.33769,11.9179 -0.31589,14.9991 -1.68024,16.3634 -2.25324,2.2533 -6.14011,2.1246 -8.31183,-0.2751 z m 57.51032,0.4395 c -1.91886,-1.4014 -2.10039,-3.1841 -2.40481,-23.6164 -0.36816,-24.7099 0.1997,-27.2605 6.06903,-27.2605 6.15599,0 6.55651,1.6116 6.55651,26.3822 0,20.412 -0.1792,22.6336 -1.95536,24.241 -2.39785,2.17 -5.51069,2.2656 -8.26537,0.2537 z m 85.60218,-0.1238 c -4.93534,-2.4479 -8.0193,-7.7565 -8.0193,-13.8043 0,-10.814 6.82897,-16.0006 22.72136,-17.257 6.01588,-0.4755 9.35585,-1.1867 9.35585,-1.992 0,-2.5121 -2.82167,-5.0071 -6.63555,-5.8672 -3.58786,-0.8092 -6.15219,-0.5554 -15.37616,1.5217 -4.33151,0.9754 -7.10118,-1.626 -6.64821,-6.2442 0.28447,-2.9003 0.9924,-3.562 5.67125,-5.3011 3.34162,-1.2421 8.35695,-2.6257 13.44369,-2.4136 6.04475,0.2521 8.87989,0.9723 13.04275,3.0778 8.34864,4.2226 9.33312,8.6823 9.33312,29.2412 0,15.2463 -0.21597,17.3347 -1.95536,18.9088 -2.55674,2.3138 -6.11922,2.2489 -8.52341,-0.1553 -1.8471,-1.8471 -2.09542,-1.8482 -6.14813,-0.028 -5.21123,2.3405 -15.8431,2.5049 -20.2619,0.3132 z m 17.37037,-10.6974 c 5.32783,-2.2261 7.75678,-4.609 7.75678,-7.6096 0,-2.2443 -0.71297,-3.0222 -4.78051,-2.9805 -11.39527,0.1168 -17.03393,3.4108 -15.80855,8.0967 1.04673,4.0027 6.62566,5.0867 12.83228,2.4934 z m 31.98042,10.3817 c -1.56515,-1.7295 -1.76959,-5.7206 -1.76959,-34.5459 0,-35.398202 0.17092,-36.474402 5.79237,-36.474402 6.45819,0 6.5039,0.2583 6.5039,36.745902 0,31.6248 -0.0982,33.2662 -2.07554,34.7121 -2.84837,2.0828 -6.33349,1.9023 -8.45114,-0.4377 z"
         id="path1448-5"
         sodipodi:nodetypes="sssssssssssssssssssssssssccssssssssssssssssssssssssssssssssssssssssssssssssssssss"
         inkscape:export-xdpi="96"
         inkscape:export-ydpi="96"
         inkscape:export-filename="C:\Users\saade\Desktop\Unipal_logo.png" />
    </g>
  </g>
  <g
     inkscape:groupmode="layer"
     id="layer2"
     inkscape:label="Unipal Round Logo"
     style="display:none">
    <g
       id="g98"
       transform="translate(521.77937,-199.15615)" />
    <g
       id="g958"
       transform="matrix(1.021192,0,0,1.021192,-553.40147,-157.49138)"
       inkscape:export-xdpi="96"
       inkscape:export-ydpi="96">
      <ellipse
         style="display:inline;fill:#1bd693;fill-opacity:1;stroke-width:0.283818"
         id="path1238"
         cx="226.75764"
         cy="498.22733"
         rx="140.02698"
         ry="140.94077"
         inkscape:export-xdpi="96"
         inkscape:export-ydpi="96"
         transform="translate(521.77937,-199.15615)" />
      <g
         id="g1525-5"
         transform="matrix(0.82843849,0,0,0.85914286,581.75345,169.83378)"
         style="display:inline">
        <path
           style="fill:#132a3a;fill-opacity:1;stroke-width:1.06924"
           d="m 212.31263,229.54243 c -1.41686,-2.0229 -1.66448,-7.1574 -1.66448,-34.5124 0,-27.3551 0.24762,-32.4896 1.66448,-34.5124 2.11293,-3.0166 7.41413,-3.2194 9.20482,-0.352 1.23518,1.9778 1.36141,1.9737 5.49003,-0.1782 5.11022,-2.6636 14.47991,-2.9083 20.08636,-0.5246 19.74061,8.3933 19.5257,41.1187 -0.32448,49.4106 -5.04068,2.1056 -13.6771,2.1319 -18.64367,0.057 -2.11122,-0.8821 -4.02039,-1.6039 -4.24261,-1.6039 -0.22223,0 -0.40405,4.464 -0.40405,9.9199 0,11.4671 -1.4016,14.6727 -6.41544,14.6727 -1.97735,0 -3.68459,-0.854 -4.75096,-2.3764 z m 32.75963,-33.8525 c 3.14385,-2.8091 5.36672,-6.2151 5.19084,-11.0482 -0.16446,-4.5192 -1.1481,-7.1208 -3.7554,-10.2194 -4.93046,-5.8595 -14.3632,-6.4522 -20.6654,-1.2984 -2.26391,1.8514 -2.42498,2.7086 -2.13848,11.3806 0.30859,9.3409 0.32436,9.3882 3.94298,11.8231 5.45228,3.6688 12.91113,3.3958 17.42546,-0.6377 z m -166.705251,12.5891 c -6.95169,-2.6723 -13.46844,-9.729 -15.14934,-16.4045 -0.68181,-2.7077 -1.19394,-13.9406 -1.19394,-26.1875 0,-20.3361 0.11577,-21.5617 2.23733,-23.6833 1.48167,-1.4816 2.44321,-1.8174 4.02455,-1.8546 1.59955,-0.038 2.83827,0.1947 4.36612,1.3368 1.71453,1.2814 2.2032,6.6592 2.20688,26.0614 0.004,19.2443 0.19071,21.3735 2.16189,24.6066 5.64751,9.263 23.317071,8.7841 28.255551,-0.7659 1.33225,-2.5763 1.65577,-7.3624 1.65577,-24.4956 0,-19.9232 0.14263,-21.475 2.21609,-24.111 2.53064,-3.2172 6.64029,-2.9485 8.63931,-0.9523 1.94645,1.9437 1.97549,1.9446 1.97549,23.3839 0,12.5959 -0.50787,23.9369 -1.19394,26.6615 -3.73015,14.8138 -23.429301,22.8521 -40.201761,16.4045 z m 53.857681,0.2996 c -2.63427,-2.9108 -2.66228,-46.1842 -0.0316,-48.8149 2.43869,-2.4387 8.05868,-1.7184 9.51418,1.2195 1.12565,2.272 1.18332,2.2767 3.76673,0.3105 6.01762,-4.5801 16.71309,-4.8649 23.22232,-0.6184 6.60157,4.3068 7.73613,8.6051 7.73613,29.3084 0,17.0345 -0.14686,18.4151 -2.06819,19.4434 -3.08358,1.6503 -5.93925,1.3445 -7.92387,-0.8485 -1.47079,-1.6252 -1.76958,-4.5053 -1.76958,-17.0575 0,-9.0105 -0.49075,-16.1793 -1.21663,-17.7724 -2.67611,-5.8734 -13.17884,-7.9267 -18.29442,-0.6465 -2.74255,3.903 -2.5421,5.2393 -2.943,19.3881 -0.33769,11.9179 -0.31589,14.9991 -1.68024,16.3634 -2.25324,2.2533 -6.14011,2.1246 -8.31183,-0.2751 z m 57.51032,0.4395 c -1.91886,-1.4014 -2.10039,-3.1841 -2.40481,-23.6164 -0.36816,-24.7099 0.1997,-27.2605 6.06903,-27.2605 6.15599,0 6.55651,1.6116 6.55651,26.3822 0,20.412 -0.1792,22.6336 -1.95536,24.241 -2.39785,2.17 -5.51069,2.2656 -8.26537,0.2537 z m 85.60218,-0.1238 c -4.93534,-2.4479 -8.0193,-7.7565 -8.0193,-13.8043 0,-10.814 6.82897,-16.0006 22.72136,-17.257 6.01588,-0.4755 9.35585,-1.1867 9.35585,-1.992 0,-2.5121 -2.82167,-5.0071 -6.63555,-5.8672 -3.58786,-0.8092 -6.15219,-0.5554 -15.37616,1.5217 -4.33151,0.9754 -7.10118,-1.626 -6.64821,-6.2442 0.28447,-2.9003 0.9924,-3.562 5.67125,-5.3011 3.34162,-1.2421 8.35695,-2.6257 13.44369,-2.4136 6.04475,0.2521 8.87989,0.9723 13.04275,3.0778 8.34864,4.2226 9.33312,8.6823 9.33312,29.2412 0,15.2463 -0.21597,17.3347 -1.95536,18.9088 -2.55674,2.3138 -6.11922,2.2489 -8.52341,-0.1553 -1.8471,-1.8471 -2.09542,-1.8482 -6.14813,-0.028 -5.21123,2.3405 -15.8431,2.5049 -20.2619,0.3132 z m 17.37037,-10.6974 c 5.32783,-2.2261 7.75678,-4.609 7.75678,-7.6096 0,-2.2443 -0.71297,-3.0222 -4.78051,-2.9805 -11.39527,0.1168 -17.03393,3.4108 -15.80855,8.0967 1.04673,4.0027 6.62566,5.0867 12.83228,2.4934 z m 31.98042,10.3817 c -1.56515,-1.7295 -1.76959,-5.7206 -1.76959,-34.5459 0,-35.3982 0.17092,-36.4744 5.79237,-36.4744 6.45819,0 6.5039,0.2583 6.5039,36.7459 0,31.6248 -0.0982,33.2662 -2.07554,34.7121 -2.84837,2.0828 -6.33349,1.9023 -8.45114,-0.4377 z"
           id="path1448-4"
           sodipodi:nodetypes="sssssssssssssssssssssssssccssssssssssssssssssssssssssssssssssssssssssssssssssssss"
           inkscape:export-xdpi="96"
           inkscape:export-ydpi="96"
           inkscape:export-filename="C:\Users\saade\Desktop\Unipal_logo.png" />
      </g>
      <path
         style="display:inline;fill:#ffffff;fill-opacity:1;stroke-width:0.472388"
         d="m 738.60304,273.92668 c 0.17994,-19.14756 0.354,-23.88313 0.97597,-26.55089 3.66165,-15.70335 13.93712,-26.56941 29.34477,-31.62584 6.14297,-2.01598 17.31937,-1.54132 22.42455,0.0688 18.58217,5.86027 29.91821,21.14235 29.84936,40.2399 -0.0687,19.03388 -11.74275,36.27694 -31.11057,39.81707 -4.80757,0.87877 -4.6894,1.04342 -27.69949,1.19597 l -24.00363,0.15927 z m 51.56502,5.77074 c 3.92118,-1.25624 7.70382,-3.64922 8.85187,-5.60027 0.71636,-1.21745 0.82612,-2.72872 0.82612,-11.37568 0,-5.48443 -0.0688,-9.9717 -0.15275,-9.9717 -0.0841,0 -4.75781,2.1099 -10.38617,4.68872 l -10.2333,4.68873 -10.2333,-4.68873 c -5.62834,-2.57882 -10.30207,-4.68872 -10.38616,-4.68872 -0.0839,0 -0.15134,4.52016 -0.1497,10.0447 0.008,11.27362 0.0422,11.42409 3.58575,14.0334 4.29222,3.16054 9.50128,4.32253 18.36361,4.09666 5.2099,-0.13227 7.30907,-0.39254 9.91403,-1.22711 z m 21.48036,-7.02134 c 0,-4.52605 -0.11053,-5.22667 -0.94415,-5.98192 -0.88056,-0.79777 -0.94417,-1.45588 -0.94417,-9.7559 v -8.90006 l -1.65242,0.78889 -1.65232,0.78897 v 8.11134 c 0,7.51088 -0.0696,8.17455 -0.94417,8.96676 -0.83368,0.75525 -0.94417,1.45587 -0.94417,5.98192 v 5.12627 h 3.54066 3.54074 z m -15.83098,-21.34432 c 8.96564,-4.02971 16.30155,-7.4637 16.30212,-7.63136 2.3e-4,-0.1675 -7.43398,-3.28518 -16.52117,-6.92792 l -16.52215,-6.62317 -16.87615,6.76208 -16.87623,6.76226 1.64991,0.76564 c 9.65829,4.48264 31.94026,14.38616 32.20329,14.31326 0.18665,-0.0515 7.67475,-3.39115 16.64038,-7.42079 z"
         id="path79"
         sodipodi:nodetypes="ssssssscsssssscsscsssssscccssscccsscscccsss"
         inkscape:export-xdpi="96"
         inkscape:export-ydpi="96"
         inkscape:export-filename="C:\Users\saade\Desktop\Unipal_logo.png" />
    </g>
  </g>
  <g
     inkscape:groupmode="layer"
     id="layer3"
     inkscape:label="Unipal Sign only"
     style="display:inline">
    <path
       style="display:inline;fill:#1bd693;fill-opacity:1;stroke-width:1.41503"
       d="m 96.435408,208.80624 c 0.53903,-57.35615 1.0604,-71.54146 2.92352,-79.53268 10.968402,-47.039084 41.748372,-79.588142 87.901692,-94.734584 18.40118,-6.038828 51.87985,-4.616988 67.17233,0.206219 55.66253,17.554311 89.61943,63.331503 89.4132,120.537825 -0.20573,57.01562 -35.17519,108.66686 -93.19114,119.27125 -14.40098,2.63236 -14.04701,3.12555 -82.97329,3.58252 l -71.902442,0.47709 z m 154.462052,17.28615 c 11.74582,-3.76305 23.07667,-10.93117 26.51564,-16.77551 2.14583,-3.64685 2.47462,-8.17383 2.47462,-34.07562 0,-16.42851 -0.20597,-29.87003 -0.45757,-29.87003 -0.25198,0 -14.25192,6.32017 -31.11156,14.04497 l -30.65366,14.045 -30.65368,-14.045 c -16.85957,-7.7248 -30.85966,-14.04497 -31.11154,-14.04497 -0.25135,0 -0.45336,13.54005 -0.44842,30.0887 0.0249,33.76989 0.12632,34.22065 10.74104,42.03678 12.85728,9.46731 28.46091,12.94804 55.00785,12.27145 15.60615,-0.39619 21.89417,-1.17583 29.69728,-3.67577 z m 64.34403,-21.03231 c 0,-13.55768 -0.33109,-15.65638 -2.82819,-17.9187 -2.63769,-2.38972 -2.82824,-4.36105 -2.82824,-29.22363 v -26.65996 l -4.9498,2.36313 -4.94949,2.36331 v 24.29737 c 0,22.49873 -0.20845,24.4867 -2.82823,26.85978 -2.49727,2.26232 -2.82827,4.36102 -2.82827,17.9187 v 15.35564 h 10.60599 10.60623 z m -47.4214,-63.93648 c 26.8564,-12.07092 48.83099,-22.35737 48.83271,-22.8596 6.5e-4,-0.50174 -22.26837,-9.84068 -49.48887,-20.752455 l -49.4918,-19.839562 -50.55219,20.255675 -50.55244,20.256232 4.94227,2.29347 c 28.93123,13.42761 95.67646,43.09344 96.46437,42.87506 0.55909,-0.15435 22.98957,-10.15811 49.84595,-22.22882 z"
       id="path79-9"
       sodipodi:nodetypes="ssssssscsssssscsscsssssscccssscccsscscccsss"
       inkscape:export-xdpi="96"
       inkscape:export-ydpi="96"
       inkscape:export-filename="C:\Users\saade\Desktop\Unipal_logo.png" />
  </g>
</svg>
